{
    "error": false,
    "message": "OK",
    "data": {
      "result": [
        {
          "case": {
            "case_type": "Other Probate",
            "case_type_category": "Civil",
            "case_type_group": "Probate",
            "case_status_category": "Pending",
            "case_status_name": "Other Pending",
            "courthouse": "Broward County Central Courthouse",
            "state": "FL",
            "jurisdiction": "Broward County Circuit Courts",
            "last_updated_date": "2021-07-16 22:18:41",
            "last_update_changes_found": "2021-07-16 22:18:41",
            "created_date": "2021-07-16 22:18:41",
            "case_name": "In Re: Estate of: Jean Baptiste, Smith",
            "filing_date": "2021-07-16",
            "case_id": "HFKCQLBTJRHUMIUFJNRXLF3WOFNSE0998",
            "case_number": "PRC210003544",
            "docket": ""
          },
          "attorneys": [],
          "parties": [
            {
              "representation_type": "Unrepresented",
              "party_type": "Decedent",
              "fullname": "Jean Baptiste, Smith",
              "entity_type": "Individual"
            }
          ],
          "judges": []
        },
        {
          "case": {
            "case_type": "Residential Eviction",
            "case_type_category": "Civil",
            "case_type_group": "Property",
            "case_status_category": "Pending",
            "case_status_name": "Case Initiated",
            "courthouse": "Justice Of The Peace Precinct 6",
            "state": "TX",
            "jurisdiction": "Tarrant County Justice Courts",
            "last_updated_date": "2021-07-17 04:05:22",
            "last_update_changes_found": "2021-07-17 04:05:22",
            "created_date": "2021-07-17 04:05:22",
            "case_name": "TEXAS LONGHORN EQUITIES vs. DIANA SMITH AND ALL OCCUPANTS",
            "filing_date": "2021-07-16",
            "case_id": "GNHCEJRNGQ2UAMT7IVOXFDTQMVKRU0974",
            "case_number": "JP06-21-E00071484",
            "docket": "07/16/2021  ... .00? Military Affidavit Filed? CITATION: <b>SMITH</b>, DIANA: Unserved? Original Petition Filed ... "
          },
          "attorneys": [],
          "parties": [
            {
              "representation_type": "Unrepresented",
              "party_type": "Defendant",
              "fullname": "SMITH, DIANA",
              "entity_type": "Individual"
            }
          ],
          "judges": []
        },
        {
          "case": {
            "case_type": "Residential Eviction",
            "case_type_category": "Civil",
            "case_type_group": "Property",
            "case_status_category": "Pending",
            "case_status_name": "Case Initiated",
            "courthouse": "Justice Of The Peace Precinct 6",
            "state": "TX",
            "jurisdiction": "Tarrant County Justice Courts",
            "last_updated_date": "2021-07-17 04:05:25",
            "last_update_changes_found": "2021-07-17 04:05:25",
            "created_date": "2021-07-17 04:05:25",
            "case_name": "TEXAS LONGHORN EQUITIES vs. CECILEY SMITH AND ALL OCCUPANTS",
            "filing_date": "2021-07-16",
            "case_id": "GRHSGJZOGU3ECM4AIZPHHD3RMZLBY0975",
            "case_number": "JP06-21-E00071485",
            "docket": "07/16/2021  ... .00? Military Affidavit Filed? CITATION: <b>SMITH</b>, CECILEY: Unserved? Original Petition Filed ... "
          },
          "attorneys": [],
          "parties": [
            {
              "representation_type": "Unrepresented",
              "party_type": "Defendant",
              "fullname": "SMITH, CECILEY",
              "entity_type": "Individual"
            }
          ],
          "judges": []
        },
        {
          "case": {
            "case_type": "Other",
            "case_type_category": "Civil",
            "case_type_group": "Other",
            "case_status_category": "Pending",
            "case_status_name": "Case Initiated",
            "courthouse": "Justice Of The Peace Precinct 6",
            "state": "TX",
            "jurisdiction": "Tarrant County Justice Courts",
            "last_updated_date": "2021-07-17 04:05:41",
            "last_update_changes_found": "2021-07-17 04:05:41",
            "created_date": "2021-07-17 04:05:40",
            "case_name": "McPherson Village LLC vs. John Smith AND ALL OCCUPANTS",
            "filing_date": "2021-07-16",
            "case_id": "GBFR6IZKGEZD2L34IJNG7C3NMJJRG0971",
            "case_number": "JP06-21-E00071490",
            "docket": "07/16/2021  ...  Document: <b>Smith</b> 5500 McLanahan Lane Eviction? Original ...  PLTF? Military Affidavit Filed? CITATION: <b>Smith</b>, John: Unserved? EFile Original Petition ... "
          },
          "attorneys": [],
          "parties": [
            {
              "representation_type": "Unrepresented",
              "party_type": "Defendant",
              "fullname": "Smith, John",
              "entity_type": "Individual"
            }
          ],
          "judges": []
        },
        {
          "case": {
            "case_type": "Debt Collection",
            "case_type_category": "Civil",
            "case_type_group": "Contract",
            "case_status_category": "Pending",
            "case_status_name": "Other Pending",
            "courthouse": "Denton County Court At Law 2",
            "state": "TX",
            "jurisdiction": "Denton County Courts",
            "last_updated_date": "2021-07-17 05:00:14",
            "last_update_changes_found": "2021-07-17 05:00:14",
            "created_date": "2021-07-17 05:00:14",
            "case_name": "AMERICAN EXPRESS NATIONAL BANK VS. YENLIS GARCIA GARCES and Also Known As YENLIS G",
            "filing_date": "2021-07-16",
            "case_id": "FVEBYIBHDA5TSI4LFY2WRC3MMFJQ60923",
            "case_number": "CV-2021-02543",
            "docket": ""
          },
          "attorneys": [
            {
              "firm": "",
              "fullname": "Andrew L. Smith"
            }
          ],
          "parties": [],
          "judges": []
        },
        {
          "case": {
            "case_type": "Debt Collection",
            "case_type_category": "Civil",
            "case_type_group": "Contract",
            "case_status_category": "Pending",
            "case_status_name": "Other Pending",
            "courthouse": "Denton County Court At Law 2",
            "state": "TX",
            "jurisdiction": "Denton County Courts",
            "last_updated_date": "2021-07-17 05:00:37",
            "last_update_changes_found": "2021-07-17 05:00:37",
            "created_date": "2021-07-17 05:00:37",
            "case_name": "AMERICAN EXPRESS NATIONAL BANK VS. AHMED MAHMOUND and Also Known As AHMED MOHAMED",
            "filing_date": "2021-07-16",
            "case_id": "FZER2IJIDE6DUJEMF43GTDDNMJKBC0924",
            "case_number": "CV-2021-02544",
            "docket": ""
          },
          "attorneys": [
            {
              "firm": "",
              "fullname": "Andrew L. Smith"
            }
          ],
          "parties": [],
          "judges": []
        },
        {
          "case": {
            "case_type": "Debt Collection",
            "case_type_category": "Civil",
            "case_type_group": "Contract",
            "case_status_category": "Pending",
            "case_status_name": "Other Pending",
            "courthouse": "Denton County Court At Law 2",
            "state": "TX",
            "jurisdiction": "Denton County Courts",
            "last_updated_date": "2021-07-17 05:00:41",
            "last_update_changes_found": "2021-07-17 05:00:41",
            "created_date": "2021-07-17 05:00:40",
            "case_name": "AMERICAN EXPRESS NATIONAL BANK VS. DON LITTLE and Also Known As DON M LITTLE",
            "filing_date": "2021-07-16",
            "case_id": "F5FB4IRJDI6TWJMNGA3WVDLOMNKRG0925",
            "case_number": "CV-2021-02545",
            "docket": ""
          },
          "attorneys": [
            {
              "firm": "",
              "fullname": "Andrew L. Smith"
            }
          ],
          "parties": [],
          "judges": []
        },
        {
          "case": {
            "case_type": "Motor Vehicle",
            "case_type_category": "Civil",
            "case_type_group": "Personal Injury",
            "case_status_category": "Pending",
            "case_status_name": "Other Pending",
            "courthouse": "Edgecomb Courthouse",
            "state": "FL",
            "jurisdiction": "Florida Hillsborough Court System",
            "last_updated_date": "2021-07-16 22:07:37",
            "last_update_changes_found": "2021-07-16 22:07:37",
            "created_date": "2021-07-16 22:07:37",
            "case_name": "MRI ASSOCIATES OF PALM HARBOR, INC.,SMITH, LOIS vs PROGRESSIVE SELECT INSURANCE COMPANY, a foreign corporation",
            "filing_date": "2021-07-16",
            "case_id": "EE6BAFBDHIUD2BLXGNFWC7CVKZEQQ1010",
            "case_number": "21-CC-077863",
            "docket": ""
          },
          "attorneys": [],
          "parties": [
            {
              "representation_type": "Attorney Represented",
              "party_type": "Plaintiff",
              "fullname": "SMITH, LOIS",
              "entity_type": "Individual"
            }
          ],
          "judges": []
        },
        {
          "case": {
            "case_type": "Debt Collection",
            "case_type_category": "Civil",
            "case_type_group": "Small Claim",
            "case_status_category": "Pending",
            "case_status_name": "Other Pending",
            "courthouse": "Edgecomb Courthouse",
            "state": "FL",
            "jurisdiction": "Florida Hillsborough Court System",
            "last_updated_date": "2021-07-16 22:23:01",
            "last_update_changes_found": "2021-07-16 22:23:01",
            "created_date": "2021-07-16 22:23:00",
            "case_name": "GHARAI, FARIBA vs MAGGIORE, LISA",
            "filing_date": "2021-07-16",
            "case_id": "E5BBMGRJIAXEGC35HFIWPAS3LZFA41007",
            "case_number": "21-CC-078013",
            "docket": ""
          },
          "attorneys": [],
          "parties": [
            {
              "representation_type": "Unrepresented",
              "party_type": "Plaintiff",
              "fullname": "SMITH, KEN",
              "entity_type": "Individual"
            }
          ],
          "judges": []
        },
        {
          "case": {
            "case_type": "Not Yet Classified",
            "case_type_category": "Not Yet Classified",
            "case_type_group": "Not Yet Classified",
            "case_status_category": "Pending",
            "case_status_name": "Other Pending",
            "courthouse": "Edgecomb Courthouse",
            "state": "FL",
            "jurisdiction": "Florida Hillsborough Court System",
            "last_updated_date": "2021-07-16 22:25:46",
            "last_update_changes_found": "2021-07-16 22:25:46",
            "created_date": "2021-07-16 22:25:46",
            "case_name": "Santana & Smith Investments vs Soto, Kenny",
            "filing_date": "2021-07-16",
            "case_id": "FBBROGZKIEXUIDD6HJJGRA24L5HA21008",
            "case_number": "21-CC-078041",
            "docket": ""
          },
          "attorneys": [],
          "parties": [
            {
              "representation_type": "Unrepresented",
              "party_type": "Plaintiff",
              "fullname": "Santana & Smith Investments",
              "entity_type": "Company"
            }
          ],
          "judges": []
        }
      ],
      "total_matches": "3556010",
      "post_data": {
        "query": [
          {
            "search_terms": [
              "smith"
            ]
          }
        ],
        "page": 1,
        "sort_by": "Filing Date",
        "filters": []
      },
      "criteria": "(0)"
    }
  }
  